<?xml version="1.0" standalone="no"?>
<!DOCTYPE svg PUBLIC "-//W3C//DTD SVG 1.1//EN" "http://www.w3.org/Graphics/SVG/1.1/DTD/svg11.dtd" >
<svg xmlns="http://www.w3.org/2000/svg">
<metadata>Generated by IcoMoon</metadata>
<defs>
<font id="icomoon" horiz-adv-x="1024">
<font-face units-per-em="1024" ascent="960" descent="-64" />
<missing-glyph horiz-adv-x="1024" />
<glyph unicode="&#x20;" horiz-adv-x="512" d="" />
<glyph unicode="&#xe901;" glyph-name="anchor" d="M1018.849 292.007c-3.424 3.424-7.806 5.137-13.135 5.137h-201.144c-8.38 0-14.090-3.809-17.142-11.431-3.048-7.24-1.713-13.913 3.99-20.006l57.146-57.139c-25.521-34.673-61.617-63.904-108.281-87.719s-98.376-39.52-155.146-47.145v369.729h109.711c9.905 0 18.487 3.625 25.726 10.854 7.233 7.229 10.858 15.807 10.858 25.713v73.148c0 9.902-3.625 18.473-10.858 25.713-7.24 7.236-15.821 10.854-25.726 10.854h-109.711v93.142c22.095 12.955 39.81 30.572 53.146 52.856 13.336 22.292 20.006 46.76 20.006 73.435 0 40.378-14.288 74.857-42.854 103.422-28.573 28.575-63.044 42.863-103.427 42.863s-74.861-14.288-103.438-42.863c-28.566-28.565-42.854-63.044-42.854-103.422 0-26.675 6.67-51.143 20.002-73.435 13.336-22.284 31.051-39.901 53.142-52.856v-93.142h-109.713c-9.911 0-18.484-3.618-25.719-10.854-7.241-7.24-10.86-15.811-10.86-25.713v-73.148c0-9.905 3.621-18.483 10.86-25.713 7.243-7.236 15.816-10.854 25.719-10.854h109.713v-369.729c-56.76 7.629-108.48 23.344-155.142 47.152-46.664 23.822-82.764 53.053-108.285 87.726l57.14 57.126c5.71 6.11 7.047 12.766 3.997 20.012-3.044 7.629-8.761 11.438-17.141 11.438h-201.145c-5.336 0-9.719-1.713-13.144-5.151-3.421-3.424-5.14-7.806-5.14-13.148v-201.137c0-8.369 3.809-14.097 11.424-17.138 3.052-0.761 5.338-1.137 6.859-1.137 5.338 0 9.715 1.713 13.144 5.127l53.143 53.149c45.329-54.473 105.997-97.615 181.997-129.423s157.81-47.725 245.43-47.725c87.617 0 169.428 15.916 245.425 47.725 76.001 31.809 136.673 74.947 182.002 129.423l53.149-53.149c3.809-3.41 8.178-5.127 13.138-5.127 1.522 0 3.809 0.386 6.864 1.137 7.619 3.045 11.424 8.769 11.424 17.138v201.137c0 5.342-1.72 9.725-5.151 13.148zM537.713 783.436c-7.233-7.239-15.8-10.868-25.713-10.868s-18.476 3.627-25.719 10.868c-7.24 7.229-10.854 15.807-10.854 25.713 0 9.901 3.615 18.472 10.854 25.713 7.247 7.237 15.817 10.856 25.719 10.856s18.48-3.621 25.713-10.856c7.233-7.239 10.865-15.812 10.865-25.713-0.003-9.903-3.632-18.483-10.865-25.713z" />
<glyph unicode="&#xe902;" glyph-name="bag" d="M895.974 680.608c-0.311 4.168-3.802 7.392-7.974 7.392h-144v40c0 127.928-104.081 232-232 232-127.921 0-232.001-104.072-232.001-232v-40h-144c-4.176 0-7.664-3.224-7.976-7.392l-56-736.002c-0.168-2.214 0.592-4.407 2.112-6.037 1.512-1.643 3.64-2.569 5.864-2.569h864.001c2.223 0 4.352 0.926 5.862 2.56 1.51 1.63 2.278 3.823 2.112 6.042l-56 736.006zM343.999 728c0 92.632 75.36 168 168.001 168 92.638 0 168-75.368 168-168v-40h-336.001v40zM311.999 464c-44.12 0-80 35.887-80 80 0 31.928 16 60.696 48 73.32v-73.32c0-17.647 14.36-32 32-32s32 14.353 32 32v73.272c32-12.624 48-41.608 48-73.272 0-44.113-35.88-80-80-80zM712 464c-44.122 0-80 35.887-80 80 0 31.928 16 60.696 48 73.32v-73.32c0-17.647 14.357-32 32-32 17.638 0 32 14.353 32 32v73.272c32-12.624 48-41.608 48-73.272 0-44.113-35.883-80-80-80z" />
<glyph unicode="&#xe903;" glyph-name="cancel" d="M318.897 689.359c-13.33 13.33-34.942 13.33-48.272 0s-13.33-34.942 0-48.272l144.814-144.816c26.662-26.658 26.662-69.885 0-96.543l-144.814-144.817c-13.33-13.329-13.33-34.939 0-48.271 13.33-13.329 34.942-13.329 48.272 0l144.814 144.817c26.662 26.658 69.885 26.658 96.546 0l144.814-144.817c13.329-13.329 34.942-13.329 48.271 0 13.329 13.332 13.329 34.942 0 48.271l-144.814 144.817c-26.662 26.658-26.662 69.885 0 96.543l144.814 144.816c13.329 13.33 13.329 34.942 0 48.272s-34.942 13.33-48.271 0l-144.814-144.816c-26.662-26.658-69.885-26.658-96.546 0l-144.814 144.816z" />
<glyph unicode="&#xe904;" glyph-name="cancel2" d="M764.7 388.541c-33.805 32.839-33.805 86.080 0 118.919l225.423 218.984c33.809 32.839 33.809 86.080 0 118.918l-51.499 50.033c-33.809 32.838-88.615 32.838-122.419 0l-225.426-218.985c-33.804-32.838-88.611-32.838-122.415 0l-225.426 218.985c-33.804 32.838-88.611 32.838-122.416 0l-51.505-50.034c-33.804-32.838-33.804-86.079 0-118.918l225.425-218.985c33.805-32.838 33.805-86.079 0.001-118.918l-225.426-218.984c-33.804-32.839-33.804-86.083 0-118.92l51.505-50.031c33.805-32.836 88.612-32.836 122.416 0l225.426 218.983c33.804 32.839 88.611 32.839 122.415 0.001l225.426-218.984c33.804-32.836 88.61-32.836 122.419 0l51.499 50.031c33.809 32.836 33.809 86.081 0 118.92l-225.423 218.984z" />
<glyph unicode="&#xe905;" glyph-name="logout" horiz-adv-x="960" d="M605.731 73.562h-493.196v748.856h493.216c10.932 0 19.805 9.464 19.805 21.126v77.796c0 11.661-8.873 21.126-19.805 21.126h-585.945c-10.933 0-19.806-9.464-19.806-21.126v-946.677c0-11.661 8.873-21.126 19.806-21.126h585.925c10.943 0 19.805 9.466 19.805 21.126v77.773c0 11.68-8.853 21.126-19.805 21.126zM954.176 462.931l-266.598 284.353c-7.43 7.933-20.576 7.923-28.006 0l-63.249-67.476c-7.734-8.25-7.734-21.622 0-29.871l120.42-128.467h-521.292c-10.933 0-19.805-9.464-19.805-21.126v-104.7c0-11.661 8.872-21.126 19.805-21.126h521.318l-120.415-128.465c-7.734-8.25-7.734-21.626 0-29.875l63.251-67.482c3.712-3.962 8.762-6.195 14.003-6.195 5.254 0 10.285 2.234 13.997 6.195l266.605 284.351c3.712 3.961 5.805 9.348 5.805 14.936-0.013 5.62-2.118 10.986-5.837 14.947z" />
<glyph unicode="&#xe906;" glyph-name="filter" d="M149.333 490.667h725.333c35.346 0 64-28.654 64-64s-28.654-64-64-64h-725.333c-35.346 0-64 28.654-64 64s28.654 64 64 64zM64 789.333h896c35.346 0 64-28.654 64-64s-28.654-64-64-64h-896c-35.346 0-64 28.654-64 64s28.654 64 64 64zM234.667 192h554.667c35.346 0 64-28.654 64-64s-28.654-64-64-64h-554.667c-35.346 0-64 28.654-64 64s28.654 64 64 64z" />
<glyph unicode="&#xe907;" glyph-name="heart-fill" d="M964.285 781.259c-152.381 197.836-452.27 81.1-452.27-119.807 0 200.908-299.906 317.653-452.308 119.807-157.511-204.532-2.263-562.82 452.298-768.633 454.543 205.814 609.792 564.101 452.28 768.633z" />
<glyph unicode="&#xe908;" glyph-name="helm" d="M985.474 486.53h-72.96c-7.851 82.237-40.513 157.346-90.46 217.68l51.637 51.755c15.032 15.062 15.002 39.457-0.061 54.483-15.066 15.036-39.462 15.005-54.48-0.062l-51.637-51.75c-60.218 49.618-135.062 82.053-216.982 89.877v72.96c0 21.277-17.251 38.527-38.526 38.527-21.279 0-38.53-17.25-38.53-38.527v-72.966c-82.241-7.849-157.344-40.51-217.683-90.452l-51.75 51.637c-15.067 15.036-39.462 15-54.483-0.062-15.031-15.062-15-39.457 0.062-54.483l51.745-51.637c-49.618-60.216-82.053-135.061-89.877-216.981h-72.96c-21.277 0-38.527-17.251-38.527-38.526 0-21.279 17.25-38.53 38.527-38.53h72.96c7.849-82.237 40.51-157.344 90.457-217.679l-51.637-51.753c-15.031-15.063-15-39.458 0.062-54.484 7.521-7.506 17.368-11.257 27.21-11.257 9.873 0 19.747 3.772 27.272 11.319l51.637 51.743c60.216-49.616 135.061-82.057 216.985-89.876v-72.96c0-21.275 17.251-38.526 38.53-38.526 21.275 0 38.526 17.251 38.526 38.526v72.96c82.237 7.851 157.344 40.513 217.679 90.46l51.756-51.637c7.52-7.506 17.367-11.257 27.211-11.257 9.871 0 19.746 3.772 27.273 11.319 15.029 15.060 14.998 39.455-0.061 54.48l-51.75 51.637c49.616 60.218 82.057 135.062 89.876 216.986h72.96c21.275 0 38.526 17.251 38.526 38.53 0 21.275-17.251 38.526-38.526 38.526zM809.093 486.53h-171.892c-2.461 7.974-5.673 15.613-9.53 22.859l121.358 121.629c31.778-41.061 53.105-90.54 60.064-144.488zM694.484 685.444l-121.361-121.64c-7.171 3.802-14.718 6.967-22.596 9.397v171.893c53.716-6.93 103.004-28.104 143.957-59.65zM473.47 745.094v-171.893c-7.974-2.461-15.616-5.673-22.859-9.53l-121.629 121.357c41.061 31.772 90.54 53.106 144.488 60.066zM274.556 630.488l121.64-121.362c-3.802-7.165-6.967-14.715-9.397-22.596h-171.899c6.935 53.719 28.104 103.008 59.656 143.959zM214.9 409.474h171.895c2.458-7.97 5.67-15.609 9.527-22.859l-121.355-121.627c-31.772 41.056-53.106 90.535-60.066 144.486zM329.512 210.555l121.362 121.641c7.168-3.802 14.715-6.967 22.596-9.397v-171.892c-53.719 6.929-103.008 28.099-143.959 59.648zM550.526 150.907v171.892c7.97 2.454 15.609 5.666 22.859 9.53l121.627-121.358c-41.056-31.778-90.535-53.105-144.486-60.064zM749.445 265.513l-121.641 121.361c3.802 7.171 6.967 14.722 9.397 22.596h171.892c-6.929-53.719-28.102-103.008-59.648-143.957z" />
<glyph unicode="&#xe909;" glyph-name="loupe" d="M1011.017 8.836l-326.959 326.959c52.809 65.775 84.429 149.295 84.429 240.205 0 212.066-171.938 384-384.002 384-212.066 0-384-171.934-384-384s171.934-384 384-384c90.413 0 173.519 31.27 239.127 83.558l327.061-327.061c16.661-16.661 43.678-16.661 60.339 0 16.67 16.661 16.67 43.678 0.004 60.339zM85.821 576c0 164.938 133.73 298.666 298.666 298.666s298.667-133.728 298.667-298.666c0-82.709-33.63-157.568-87.957-211.652-0.004-0.004-0.013-0.009-0.017-0.013 0-0.004-0.004-0.009-0.004-0.013-54.012-53.756-128.469-86.989-210.686-86.989-164.938 0-298.668 133.73-298.668 298.667z" />
<glyph unicode="&#xe90d;" glyph-name="question" d="M0 448c0-282.771 229.23-512 512-512s512 229.229 512 512c0 282.77-229.229 512-512 512s-512-229.23-512-512zM896 448c0-212.077-171.923-384-384-384s-384 171.923-384 384c0 212.077 171.923 384 384 384s384-171.923 384-384zM448 320v32c0 77.928 27.108 116.331 89.6 163.2 33.508 25.131 38.4 32.061 38.4 60.8 0 35.346-28.653 64-64 64s-64-28.654-64-64h-128c0 106.038 85.962 192 192 192s192-85.962 192-192c0-77.928-27.11-116.331-89.6-163.2-33.508-25.131-38.4-32.061-38.4-60.8v-32h-128zM576.042 192.109c0-35.347-28.664-64-64.021-64s-64.021 28.653-64.021 64c0 35.341 28.663 64 64.021 64s64.021-28.659 64.021-64z" />
<glyph unicode="&#xe90e;" glyph-name="reaction-1" d="M11.367 448c0-276.487 224.136-500.623 500.623-500.623 276.483 0 500.62 224.137 500.62 500.623s-224.137 500.622-500.62 500.622c-276.487 0-500.623-224.136-500.623-500.622zM921.59 448c0-226.215-183.385-409.6-409.6-409.6-226.217 0-409.601 183.385-409.601 409.6s183.384 409.6 409.601 409.6c226.215 0 409.6-183.384 409.6-409.6zM511.99 539.023c-100.54 0-182.045-81.507-182.045-182.047v-45.51c0-100.54 81.506-182.043 182.045-182.043s182.043 81.504 182.043 182.043v45.51c0 100.54-81.504 182.047-182.043 182.047zM420.966 356.977c0 50.272 40.752 91.023 91.023 91.023 50.268 0 91.020-40.752 91.020-91.023v-45.51c0-50.272-40.752-91.023-91.020-91.023-50.272 0-91.023 40.752-91.023 91.023v45.51zM648.523 675.555h91.020v-91.022h-91.020v91.022zM375.456 675.555h-91.023v-91.022h91.023v91.022z" />
<glyph unicode="&#xe90f;" glyph-name="reaction-2" d="M511.99-52.623c-276.487 0-500.623 224.137-500.623 500.623s224.136 500.622 500.623 500.622c276.483 0 500.62-224.136 500.62-500.622 0-276.487-224.137-500.623-500.62-500.623zM511.99 38.4c226.215 0 409.6 183.385 409.6 409.6s-183.385 409.6-409.6 409.6c-226.217 0-409.601-183.384-409.601-409.6s183.384-409.6 409.601-409.6zM511.99 252.399c60.051 0 115.111-29.235 149.033-77.466l74.452 52.364c-50.79 72.216-133.485 116.125-223.485 116.125-90.003 0-172.696-43.909-223.487-116.125l74.454-52.364c33.922 48.23 88.979 77.466 149.033 77.466zM603.010 448v91.023h91.023v-91.023h-91.023zM329.944 539.023v-91.023h91.022v91.023h-91.022z" />
<glyph unicode="&#xe910;" glyph-name="reaction-3" d="M511.99-52.623c-276.487 0-500.623 224.137-500.623 500.623s224.136 500.622 500.623 500.622c276.483 0 500.62-224.136 500.62-500.622 0-276.487-224.137-500.623-500.62-500.623zM511.99 38.4c226.215 0 409.6 183.385 409.6 409.6s-183.385 409.6-409.6 409.6c-226.217 0-409.601-183.384-409.601-409.6s183.384-409.6 409.601-409.6zM735.474 291.058l-74.452 52.364c-33.922-48.23-88.982-77.469-149.033-77.469-60.054 0-115.111 29.239-149.033 77.469l-74.454-52.364c50.791-72.216 133.484-116.125 223.487-116.125 89.999 0 172.694 43.909 223.485 116.125zM603.010 493.51v91.023h91.023v-91.023h-91.023zM329.944 584.533v-91.023h91.022v91.023h-91.022z" />
<glyph unicode="&#xe911;" glyph-name="reaction-4" d="M11.367 448c0-276.487 224.136-500.623 500.623-500.623 276.483 0 500.62 224.137 500.62 500.623s-224.137 500.622-500.62 500.622c-276.487 0-500.623-224.136-500.623-500.622zM921.59 448c0-226.215-183.385-409.6-409.6-409.6-226.217 0-409.601 183.385-409.601 409.6s183.384 409.6 409.601 409.6c226.215 0 409.6-183.384 409.6-409.6zM513.451 129.423c153.293 0 236.827 81.261 232.625 228.85l-1.26 44.216h-469.191v-45.513c0-147.074 85.023-227.553 237.825-227.553zM652.506 311.467c-10.691-63.512-53.637-91.023-139.056-91.023-85.371 0-129.72 27.75-142.691 91.023h281.747zM603.010 630.044h136.533v-91.021h-136.533v91.021zM420.966 630.044h-136.533v-91.021h136.533v91.021z" />
<glyph unicode="&#xe912;" glyph-name="user" d="M849.903 308.036c-52.047 52.047-113.999 90.576-181.589 113.903 72.393 49.859 119.955 133.304 119.955 227.661 0 152.333-123.935 276.267-276.268 276.267s-276.267-123.934-276.267-276.267c0-94.356 47.561-177.802 119.956-227.661-67.593-23.327-129.544-61.856-181.592-113.903-90.257-90.259-139.964-210.261-139.964-337.903h90.476c0 222.324 165.065 387.389 387.39 387.389s387.389-165.065 387.389-387.389h90.477c0 127.642-49.708 247.644-139.964 337.903zM512 463.93c-111.162 0-185.731 74.506-185.731 185.67s74.569 185.79 185.731 185.79c111.162 0 185.73-74.627 185.73-185.79s-74.568-185.67-185.73-185.67z" />
</font></defs></svg>