<svg width="30" height="30" viewBox="0 0 30 30" fill="none" xmlns="http://www.w3.org/2000/svg">
<g clip-path="url(#clip0)">
<path d="M20.6074 21.5227C20.555 21.1886 20.5056 20.8409 20.4573 20.4731C20.7677 20.2387 20.9739 19.9006 21.0407 19.5157C21.1098 19.1144 21.0188 18.7098 20.7837 18.3772C20.6308 18.16 20.4282 17.9902 20.1945 17.8794C20.1717 17.5564 20.1517 17.233 20.136 16.9103C20.1476 16.9021 20.16 16.894 20.1714 16.8858C20.5047 16.651 20.7262 16.3006 20.796 15.8989C20.8652 15.4976 20.7741 15.093 20.5392 14.7604C20.4191 14.5901 20.268 14.4498 20.0927 14.3429C20.0957 14.0545 20.1014 13.7659 20.1105 13.4775C20.1639 13.4487 20.2163 13.4171 20.2662 13.3818C20.5992 13.147 20.821 12.7966 20.8901 12.3951C20.9597 11.9939 20.8681 11.5892 20.6338 11.2571C20.5351 11.1168 20.414 10.9946 20.2763 10.8966C20.3058 10.5824 20.3383 10.2686 20.3744 9.95479C20.8839 9.70256 21.2257 9.17521 21.2257 8.58699C21.2257 8.16058 21.0451 7.75935 20.7384 7.47462C20.7832 7.21987 20.8304 6.96512 20.8798 6.71084C21.493 6.51148 21.9297 5.93836 21.9297 5.26407C21.9297 4.7603 21.6857 4.30162 21.2861 4.02032C21.2366 2.95052 20.8249 1.9732 20.1085 1.24215C19.2854 0.403062 18.1142 -0.0585938 16.8101 -0.0585938C15.6792 -0.0585938 14.5453 0.417253 13.4359 1.3559C13.2658 1.29136 13.0859 1.2584 12.9014 1.2584C12.0603 1.2584 11.3759 1.94275 11.3759 2.78367C11.3759 3.02217 11.4318 3.25402 11.5375 3.46414C11.391 3.66761 11.264 3.85576 11.1583 4.01735C10.2755 3.92122 9.4746 4.64014 9.4746 5.53461C9.4746 5.91295 9.61285 6.26841 9.85752 6.54306C9.79161 6.72136 9.72752 6.90447 9.66686 7.09261C8.97701 7.23841 8.45791 7.85227 8.45791 8.58538C8.45791 9.07405 8.68565 9.51739 9.06193 9.80029C9.01775 10.1205 8.97953 10.4515 8.94794 10.7907C8.8937 10.8197 8.84083 10.8522 8.78979 10.8873C8.10291 11.3725 7.93811 12.3258 8.42289 13.0133C8.53618 13.174 8.67763 13.3086 8.84129 13.4134C8.8422 13.7222 8.84838 14.0344 8.85845 14.347C8.83511 14.3612 8.81222 14.3766 8.78979 14.3924C8.10291 14.8774 7.93811 15.8309 8.42289 16.5187C8.58196 16.7434 8.79345 16.9174 9.03812 17.0277C9.07154 17.3617 9.10862 17.6917 9.14776 18.0156C8.81931 18.2506 8.60119 18.5983 8.53252 18.997C8.46294 19.3983 8.5545 19.8029 8.78887 20.1355C8.97793 20.4035 9.24343 20.5981 9.54807 20.6988C9.59522 20.9675 9.64306 21.2273 9.69044 21.4779C9.65428 21.5088 9.61971 21.5408 9.58721 21.5745C9.00402 22.1801 9.02233 23.148 9.62841 23.7312C9.80648 23.9022 10.0205 24.0253 10.2539 24.094C10.3988 24.6877 10.5092 25.0869 10.5325 25.1567C10.5332 25.1588 10.5336 25.1606 10.5346 25.1627C10.1237 25.7658 10.1954 26.5966 10.738 27.1198C10.979 27.3521 11.2883 27.4952 11.6179 27.5327C12.6474 29.1528 14.028 29.9415 15.8309 29.9415C18.4154 29.9415 20.6809 28.0173 21.0998 25.4652C21.1627 25.0814 21.1627 24.6726 21.0982 24.224C21.1705 24.1723 21.2376 24.1141 21.2996 24.0501C21.5823 23.7569 21.7333 23.3707 21.7258 22.9631C21.718 22.5557 21.5523 22.176 21.2588 21.8938C21.0721 21.7148 20.8494 21.5887 20.6074 21.5227ZM20.5662 23.3451C20.5143 23.3984 20.4472 23.4405 20.3657 23.4685L19.9503 23.614L20.051 24.1302C20.1373 24.5747 20.1527 24.9569 20.0957 25.3007C19.7565 27.3673 17.9224 28.9246 15.8307 28.9246C14.3104 28.9246 13.2029 28.2402 12.3457 26.7717L12.1793 26.4865L11.8513 26.522C11.7602 26.5316 11.5879 26.527 11.4441 26.3872C11.242 26.1931 11.2356 25.8701 11.4064 25.6911L11.7055 25.4192L11.5666 25.0297C11.5437 24.966 11.5208 24.9026 11.4995 24.8395C11.4863 24.7974 11.3546 24.332 11.1654 23.53L11.0745 23.1446L10.6788 23.1382C10.5481 23.1361 10.4256 23.0862 10.3345 22.9988C10.1326 22.8045 10.1262 22.4818 10.3203 22.2803C10.3611 22.238 10.4107 22.2034 10.4723 22.1739L10.8298 22.0048L10.7536 21.6168C10.6662 21.1707 10.5771 20.6919 10.4913 20.1833L10.4231 19.7787L10.0132 19.7599C9.85317 19.7521 9.70967 19.6759 9.62017 19.5493C9.45858 19.32 9.51374 19.0021 9.74331 18.84C9.77329 18.8192 9.81243 18.8002 9.86691 18.781L10.2537 18.6436L10.2008 18.2364C10.1322 17.7041 10.0702 17.155 10.0184 16.5947L9.98226 16.2005L9.59133 16.139C9.45355 16.1177 9.33338 16.0433 9.25419 15.9314C9.0926 15.702 9.1473 15.3843 9.3771 15.2221C9.41532 15.1953 9.4627 15.1733 9.52358 15.1555L9.90513 15.0431L9.88842 14.6467C9.86645 14.1275 9.85638 13.6062 9.85935 13.0978L9.86141 12.7286L9.511 12.6121C9.43684 12.5879 9.33247 12.5354 9.25533 12.426C9.09374 12.1967 9.14867 11.879 9.37733 11.7174C9.42722 11.6822 9.48513 11.6563 9.54968 11.6412L9.90719 11.5535L9.93626 11.1869C9.97952 10.6362 10.0413 10.1054 10.1194 9.60872L10.1828 9.20405L9.80145 9.05597C9.60369 8.97929 9.47598 8.79367 9.47598 8.58355C9.47598 8.30294 9.7044 8.07498 9.95297 8.0736L10.4265 8.10702L10.5407 7.71563C10.6577 7.31486 10.79 6.93514 10.934 6.58564L11.0972 6.18921L10.7335 5.96125C10.5831 5.86672 10.4931 5.7065 10.4931 5.53209C10.4931 5.18327 10.8774 4.93013 11.1983 5.06265L11.5995 5.23111L11.8277 4.86032C11.9797 4.61336 12.232 4.22471 12.5682 3.77954L12.8254 3.43827L12.5336 3.12608C12.4691 3.06107 12.3933 2.94618 12.3933 2.7839C12.3933 2.50329 12.6215 2.27532 12.9017 2.27532C13.0369 2.27532 13.1402 2.33117 13.2033 2.37809L13.5409 2.63032L13.8511 2.34513C14.8543 1.42525 15.8499 0.95856 16.8103 0.95856C17.8396 0.95856 18.7528 1.31127 19.3818 1.95305C19.9746 2.55708 20.2909 3.39456 20.2731 4.31077L20.2664 4.66165L20.593 4.7928C20.7871 4.87016 20.9128 5.05533 20.9128 5.26315C20.9128 5.53415 20.6992 5.75594 20.4257 5.76761L20.0286 5.78432L19.9492 6.17434C19.8521 6.65247 19.7636 7.13129 19.6828 7.61149L19.6223 7.96946L19.9405 8.14272C20.1057 8.23313 20.2085 8.40273 20.2085 8.58561C20.2085 8.82571 20.0387 9.03514 19.8043 9.08343L19.4475 9.15713L19.4026 9.51922C19.3355 10.0587 19.2806 10.5977 19.2339 11.1381L19.2007 11.524L19.5637 11.6588C19.661 11.695 19.7434 11.7579 19.8029 11.8419C19.8812 11.9532 19.9112 12.0875 19.8883 12.2219C19.8654 12.3555 19.7917 12.4725 19.6807 12.5503C19.6274 12.5879 19.5663 12.6149 19.5008 12.6295L19.1225 12.7165L19.1067 13.1044C19.0854 13.6247 19.0762 14.1459 19.0737 14.6666L19.0721 15.0483L19.4381 15.1566C19.5171 15.1799 19.6283 15.2312 19.7093 15.3463C19.7876 15.4576 19.8176 15.5917 19.7947 15.7261C19.7718 15.86 19.6981 15.9767 19.5878 16.0545C19.5541 16.0781 19.5116 16.0982 19.4534 16.1177L19.0913 16.2385L19.1067 16.6198C19.1291 17.1788 19.1637 17.737 19.2074 18.2953L19.2383 18.6885L19.6269 18.7567C19.7606 18.78 19.8766 18.8533 19.9549 18.9636C20.0332 19.0748 20.0632 19.2092 20.0403 19.3433C20.0174 19.4772 19.9437 19.5942 19.8329 19.6718C19.8054 19.6917 19.7702 19.7088 19.724 19.7274L19.3589 19.8727L19.4072 20.2627C19.488 20.9146 19.5731 21.5031 19.6661 22.0622L19.7398 22.5017L20.1847 22.4863C20.3255 22.4895 20.4552 22.5321 20.5543 22.6273C20.6521 22.7214 20.7075 22.848 20.71 22.9832C20.7104 23.1187 20.6603 23.2474 20.5662 23.3451Z" fill="black"/>
<path d="M16.0133 5.02605C16.2939 5.02605 16.5216 4.79877 16.5216 4.5177C16.5216 3.85165 15.9801 3.31012 15.314 3.31012C14.648 3.31012 14.1064 3.85165 14.1064 4.5177C14.1064 4.79877 14.3342 5.02605 14.6148 5.02605C14.8956 5.02605 15.1234 4.79877 15.1234 4.5177C15.1234 4.41242 15.2087 4.32704 15.314 4.32704C15.4193 4.32704 15.5047 4.41242 15.5047 4.5177C15.5047 4.79877 15.7324 5.02605 16.0133 5.02605Z" fill="black"/>
<path d="M17.2925 6.55151C16.6265 6.55151 16.085 7.09305 16.085 7.7591C16.085 8.04039 16.3127 8.26767 16.5935 8.26767C16.8741 8.26767 17.1019 8.04039 17.1019 7.7591C17.1019 7.65404 17.1875 7.56867 17.2925 7.56867C17.3978 7.56867 17.4832 7.65404 17.4832 7.7591C17.4832 8.04039 17.7112 8.26767 17.9918 8.26767C18.2724 8.26767 18.5001 8.04039 18.5001 7.7591C18.5001 7.09305 17.9581 6.55151 17.2925 6.55151Z" fill="black"/>
<path d="M12.6833 16.3813C12.6833 16.6626 12.911 16.8899 13.1916 16.8899C13.4725 16.8899 13.7002 16.6626 13.7002 16.3813C13.7002 15.7153 13.1587 15.1738 12.4926 15.1738C11.8266 15.1738 11.285 15.7153 11.285 16.3813C11.285 16.6626 11.5128 16.8899 11.7934 16.8899C12.074 16.8899 12.302 16.6626 12.302 16.3813C12.302 16.2763 12.3873 16.1907 12.4926 16.1907C12.5979 16.1907 12.6833 16.2763 12.6833 16.3813Z" fill="black"/>
<path d="M16.9112 24.3483C16.2451 24.3483 15.7036 24.8898 15.7036 25.5558C15.7036 25.8369 15.9314 26.0642 16.212 26.0642C16.4928 26.0642 16.7205 25.8369 16.7205 25.5558C16.7205 25.4506 16.8059 25.3652 16.9112 25.3652C17.0165 25.3652 17.1019 25.4506 17.1019 25.5558C17.1019 25.8369 17.3296 26.0642 17.6104 26.0642C17.891 26.0642 18.1188 25.8369 18.1188 25.5558C18.1188 24.8898 17.5768 24.3483 16.9112 24.3483Z" fill="black"/>
<path d="M16.0849 13.6702C16.3655 13.6702 16.5934 13.4429 16.5934 13.1619C16.5934 13.0566 16.6788 12.9712 16.7841 12.9712C16.8892 12.9712 16.9748 13.0566 16.9748 13.1619C16.9748 13.4429 17.2025 13.6702 17.4831 13.6702C17.7637 13.6702 17.9917 13.4429 17.9917 13.1619C17.9917 12.4956 17.4501 11.954 16.7841 11.954C16.1178 11.954 15.5763 12.4956 15.5763 13.1619C15.5763 13.4429 15.8036 13.6702 16.0849 13.6702Z" fill="black"/>
<path d="M13.7001 21.1074C13.0341 21.1074 12.4926 21.6489 12.4926 22.3149C12.4926 22.596 12.7203 22.8233 13.0009 22.8233C13.2817 22.8233 13.5095 22.596 13.5095 22.3149C13.5095 22.2097 13.5949 22.1243 13.7001 22.1243C13.8054 22.1243 13.8908 22.2097 13.8908 22.3149C13.8908 22.596 14.1185 22.8233 14.3994 22.8233C14.68 22.8233 14.9077 22.596 14.9077 22.3149C14.9077 21.6489 14.3657 21.1074 13.7001 21.1074Z" fill="black"/>
<path d="M13.7331 9.09399C13.067 9.09399 12.5255 9.63553 12.5255 10.3016C12.5255 10.5829 12.7533 10.8102 13.0341 10.8102C13.3147 10.8102 13.5424 10.5829 13.5424 10.3016C13.5424 10.1963 13.628 10.1109 13.7331 10.1109C13.8384 10.1109 13.9238 10.1963 13.9238 10.3016C13.9238 10.5829 14.1517 10.8102 14.4323 10.8102C14.7129 10.8102 14.9409 10.5829 14.9409 10.3016C14.9409 9.63553 14.3987 9.09399 13.7331 9.09399Z" fill="black"/>
<path d="M16.9112 17.0389C16.2451 17.0389 15.7036 17.5805 15.7036 18.2465C15.7036 18.5278 15.9314 18.7551 16.212 18.7551C16.4928 18.7551 16.7205 18.5278 16.7205 18.2465C16.7205 18.1412 16.8059 18.0559 16.9112 18.0559C17.0165 18.0559 17.1019 18.1412 17.1019 18.2465C17.1019 18.5278 17.3296 18.7551 17.6104 18.7551C17.891 18.7551 18.1188 18.5278 18.1188 18.2465C18.1188 17.5805 17.5768 17.0389 16.9112 17.0389Z" fill="black"/>
</g>
<defs>
<clipPath id="clip0">
<rect width="30" height="30" fill="white"/>
</clipPath>
</defs>
</svg>
